Tidy Inference in R
…
---

# 1000 parallel universes

.pull-left[

```
# A tibble: 1,000 x 2
   replicate    stat
       <int>   <dbl>
 1         1 -0.140 
 2         2 -0.0478
 3         3 -0.0478
 4         4 -0.0478
 5         5 -0.140 
 6         6  0.228 
 7         7 -0.140 
 8         8  0.136 
 9         9 -0.232 
10        10  0.0441
# ... with 990 more rows
```
…
